Index,Program,PriorExp,Rexperience,OperatingSystem,TVhours,Editor
1,MISM,Extensive experience,Basic competence,Windows,0,Microsoft Word
2,PPM,Some experience,Never used,Windows,3,Microsoft Word
3,PPM,Some experience,Basic competence,Mac OS X,30,Microsoft Word
4,Other,Some experience,Basic competence,Mac OS X,6,Microsoft Excel
5,MISM,Some experience,Basic competence,Mac OS X,20,LaTeX
6,PPM,Never programmed before,Never used,Windows,15,Microsoft Word
7,Other,Some experience,Installed on machine,Windows,6,Microsoft Word
8,Other,Some experience,Basic competence,Mac OS X,8,Microsoft Word
9,PPM,Extensive experience,Installed on machine,Windows,10,Microsoft Word
10,MISM,Extensive experience,Never used,Windows,0,Microsoft Word
11,MISM,Some experience,Never used,Windows,4,Microsoft Word
12,MISM,Extensive experience,Installed on machine,Mac OS X,0,Microsoft Word
13,PPM,Some experience,Never used,Windows,0,Microsoft Word
14,MISM,Some experience,Installed on machine,Windows,2,Microsoft Word
15,MISM,Some experience,Never used,Windows,24,Microsoft Word
16,MISM,Some experience,Never used,Mac OS X,10,Microsoft Word
17,MISM,Some experience,Installed on machine,Windows,25,Microsoft Word
18,PPM,Some experience,Never used,Windows,0,Microsoft Word
19,MISM,Some experience,Never used,Windows,0,Microsoft Word
20,MISM,Some experience,Installed on machine,Windows,10,Microsoft Word
21,Other,Never programmed before,Never used,Mac OS X,5,Microsoft Word
22,Other,Never programmed before,Never used,Mac OS X,35,Microsoft Word
23,Other,Some experience,Never used,Windows,2,Microsoft Word
24,Other,Never programmed before,Never used,Windows,2,Microsoft Word
25,PPM,Some experience,Never used,Mac OS X,5.5,Microsoft Word
26,MISM,Some experience,Never used,Windows,20,Microsoft Word
27,MISM,Some experience,Basic competence,Mac OS X,0,LaTeX
28,MISM,Some experience,Basic competence,Mac OS X,0,LaTeX
29,MISM,Some experience,Installed on machine,Windows,10,Microsoft Word
30,MISM,Some experience,Never used,Windows,5,Microsoft Word
31,MISM,Extensive experience,Basic competence,Mac OS X,40,Microsoft Word
32,MISM,Some experience,Never used,Mac OS X,10,Microsoft Word
33,MISM,Some experience,Installed on machine,Mac OS X,0,Microsoft Word
34,PPM,Some experience,Installed on machine,Windows,20,Microsoft Word
35,MISM,Some experience,Basic competence,Mac OS X,0,LaTeX
36,PPM,Never programmed before,Installed on machine,Mac OS X,6,Microsoft Word
37,MISM,Extensive experience,Basic competence,Windows,2,LaTeX
38,Other,Never programmed before,Never used,Mac OS X,10,Microsoft Word
39,Other,Some experience,Basic competence,Windows,10,LaTeX
40,MISM,Extensive experience,Installed on machine,Mac OS X,7,Microsoft Word